<svg xmlns="http://www.w3.org/2000/svg" width="1920" height="819" viewBox="0 0 1920 819">
  <g id="Group_2127" data-name="Group 2127" transform="translate(0 -1863)">
    <g id="Group_2081" data-name="Group 2081" transform="translate(0 121)">
      <path id="Intersection_1" data-name="Intersection 1" d="M704.088,693.932c53.107-111.155,1.006-242.467-117.443-294.114-104.136-45.406-225.754-14.5-292.309,68.035V264.761q7.5-3.7,15.125-7.1c11.759-5.236,23.932-10,36.181-14.172s24.846-7.828,37.462-10.885c12.642-3.064,25.585-5.588,38.468-7.5,12.948-1.925,26.138-3.282,39.2-4.031,13.161-.754,26.505-.911,39.662-.465,13.283.451,26.69,1.525,39.85,3.195,13.311,1.688,26.689,4.025,39.764,6.946,13.25,2.96,26.509,6.592,39.407,10.792,13.088,4.262,26.133,9.217,38.775,14.729s25.087,11.671,36.991,18.306c11.733,6.54,23.23,13.7,34.17,21.29,10.8,7.489,21.313,15.57,31.251,24.018,9.827,8.353,19.326,17.266,28.232,26.491,8.825,9.139,17.274,18.8,25.114,28.709,7.786,9.842,15.153,20.161,21.9,30.672,6.711,10.46,12.962,21.353,18.579,32.378,5.6,11,10.7,22.379,15.162,33.83a367.963,367.963,0,0,1,11.647,35.027,363.586,363.586,0,0,1,8.031,35.967,356.061,356.061,0,0,1-6.019,148.172q-.358,1.4-.728,2.8Z" transform="translate(-294.336 1860.068)" fill="#3b8ea0" opacity="0.06" style="mix-blend-mode: multiply;isolation: isolate"/>
      <path id="Intersection_2" data-name="Intersection 2" d="M636.232,642.932c44.312-99.184.839-216.355-97.994-262.44-86.891-40.516-188.368-12.938-243.9,60.708V259.98q6.258-3.3,12.62-6.333c9.812-4.672,19.969-8.927,30.189-12.646s20.732-6.985,31.258-9.712c10.549-2.734,21.348-4.986,32.1-6.7,10.8-1.718,21.809-2.928,32.71-3.6,10.982-.673,22.116-.813,33.094-.415,11.083.4,22.27,1.361,33.251,2.851,11.106,1.506,22.269,3.592,33.179,6.2a342.067,342.067,0,0,1,32.881,9.63,346.26,346.26,0,0,1,63.219,29.478,342.071,342.071,0,0,1,28.512,19c9.01,6.682,17.784,13.893,26.076,21.432,8.2,7.454,16.125,15.407,23.557,23.638,7.363,8.155,14.413,16.774,20.955,25.617,6.5,8.782,12.643,17.99,18.27,27.368,5.6,9.333,10.815,19.053,15.5,28.891,4.674,9.813,8.931,19.969,12.651,30.187s6.989,20.731,9.718,31.255c2.736,10.551,4.99,21.349,6.7,32.093,1.719,10.8,2.931,21.8,3.6,32.706.674,10.981.815,22.114.418,33.089-.4,11.081-1.358,22.267-2.847,33.246-1.506,11.105-3.59,22.267-6.2,33.174q-.3,1.251-.608,2.5Z" transform="translate(2214.017 2384.932) rotate(180)" fill="#ff7d0c" opacity="0.06" style="mix-blend-mode: multiply;isolation: isolate"/>
    </g>
    <rect id="Rectangle_93" data-name="Rectangle 93" width="1920" height="819" transform="translate(0 1863)" fill="#3b8ea0" opacity="0.07"/>
  </g>
</svg>
