<svg xmlns="http://www.w3.org/2000/svg" width="27.093" height="23.986" viewBox="0 0 27.093 23.986">
  <path id="services" d="M.683,12.448H4.7a.686.686,0,0,1,.683.683v8.2a.686.686,0,0,1-.683.683H.683A.686.686,0,0,1,0,21.332v-8.2a.686.686,0,0,1,.683-.683Zm5.581,8.764V13.226H10.53A13.5,13.5,0,0,1,15.1,15.287h2.8c1.263.075,1.927,1.358.7,2.2a5.186,5.186,0,0,1-3.6.56.6.6,0,1,0,0,1.186c.331.026.69-.051,1.005-.053,1.653,0,3.015-.317,3.849-1.622l.425-.994,4.155-2.061c2.081-.683,3.558,1.492,2.026,3A54.446,54.446,0,0,1,17.2,22.958a6.267,6.267,0,0,1-6.88,0L6.267,21.213Zm7.4-19.526a.253.253,0,0,0-.086-.046.159.159,0,0,0-.071,0,.245.245,0,0,0-.161.084l-.558.661a.337.337,0,0,1-.419.082c-.075-.04-.154-.077-.234-.11s-.174-.068-.258-.1-.17-.053-.269-.082-.183-.051-.269-.071a.339.339,0,0,1-.256-.317L11,.882A.284.284,0,0,0,10.977.79a.269.269,0,0,0-.051-.064.159.159,0,0,0-.071-.037.2.2,0,0,0-.09,0L9.6.8A.313.313,0,0,0,9.5.829.258.258,0,0,0,9.43.891a.238.238,0,0,0-.04.073h0a.2.2,0,0,0,0,.073l.082.857a.339.339,0,0,1-.247.359c-.071.024-.15.053-.24.09s-.168.075-.238.112H8.733c-.075.04-.154.082-.22.126H8.491c-.075.044-.148.09-.22.137a.342.342,0,0,1-.4-.018L7.107,2.11a.282.282,0,0,0-.077-.044.152.152,0,0,0-.066,0,.289.289,0,0,0-.09.029H6.86a.3.3,0,0,0-.055.051l-.738.9a.287.287,0,0,0-.051.09.192.192,0,0,0,0,.071v.015a.2.2,0,0,0,.022.075V3.3a.256.256,0,0,0,.053.057l.661.558a.335.335,0,0,1,.082.421q-.059.108-.108.22a2.727,2.727,0,0,0-.1.258c-.026.082-.055.17-.084.269s-.051.185-.071.269a.337.337,0,0,1-.3.273l-.91.084a.271.271,0,0,0-.09.026.249.249,0,0,0-.066.053.2.2,0,0,0-.037.071.22.22,0,0,0,0,.088l.115,1.17a.269.269,0,0,0,.026.093.245.245,0,0,0,.06.075.3.3,0,0,0,.073.04.24.24,0,0,0,.082,0l.857-.082a.337.337,0,0,1,.346.247c.024.071.055.152.093.24s.073.165.112.24l.015.031c.035.068.075.143.119.22l.148.242a.342.342,0,0,1-.022.4l-.611.752a.331.331,0,0,0-.04.071.2.2,0,0,0,0,.064.256.256,0,0,0,.026.093.22.22,0,0,0,.057.068c.3.253.617.5.919.758a.231.231,0,0,0,.066.033.207.207,0,0,0,.084,0h0a.313.313,0,0,0,.1-.026H7.7a.544.544,0,0,0,.06-.046l.551-.661a.337.337,0,0,1,.421-.084,2.528,2.528,0,0,0,.234.11c.086.037.172.068.258.1s.168.055.269.084.183.051.269.071a.337.337,0,0,1,.262.317l.084.9a.242.242,0,0,0,.029.09.2.2,0,0,0,.051.066.245.245,0,0,0,.071.037.24.24,0,0,0,.09,0l1.168-.115a.282.282,0,0,0,.095-.026h0a.273.273,0,0,0,.071-.053.282.282,0,0,0,.046-.082.159.159,0,0,0,0-.079l-.079-.86a.337.337,0,0,1,.22-.353c.086-.029.172-.062.256-.1h.026c.071-.031.141-.066.22-.106h.013c.084-.042.165-.086.238-.13l.245-.148a.335.335,0,0,1,.395.024l.745.608a.3.3,0,0,0,.073.04h0a.152.152,0,0,0,.071,0,.22.22,0,0,0,.09-.024.269.269,0,0,0,.066-.06c.253-.3.5-.617.758-.919a.2.2,0,0,0,.033-.064.254.254,0,0,0,0-.084h0a.331.331,0,0,0-.026-.1.267.267,0,0,0-.055-.071l-.661-.538A.335.335,0,0,1,14.271,8a2.528,2.528,0,0,0,.11-.234c.037-.09.071-.176.1-.256s.053-.172.082-.271.051-.181.071-.269a.337.337,0,0,1,.324-.262l.917-.1a.284.284,0,0,0,.093-.026.34.34,0,0,0,.064-.051.245.245,0,0,0,.037-.071h0a.249.249,0,0,0,0-.084L15.95,5.214a.289.289,0,0,0-.026-.09V5.11a.278.278,0,0,0-.055-.062.238.238,0,0,0-.073-.04h0a.2.2,0,0,0-.073,0l-.866.062a.342.342,0,0,1-.353-.22c-.029-.082-.06-.168-.1-.256s-.077-.181-.115-.253V4.325a2.482,2.482,0,0,0-.123-.22c-.044-.075-.095-.15-.145-.22a.339.339,0,0,1,.02-.408l.6-.747a.253.253,0,0,0,.044-.077.148.148,0,0,0,0-.064.3.3,0,0,0-.029-.093V2.48a.258.258,0,0,0-.046-.053l-.827-.679a.322.322,0,0,1-.121-.062Zm9.121,5.423a.339.339,0,0,0-.253-.079.357.357,0,0,0-.234.126l-.337.408a2.357,2.357,0,0,0-.333-.141c-.119-.037-.22-.071-.348-.1l-.053-.569a.346.346,0,0,0-.121-.234.32.32,0,0,0-.251-.073l-.719.071a.355.355,0,0,0-.22.119.333.333,0,0,0-.079.253l.048.522a2.065,2.065,0,0,0-.337.143,2.513,2.513,0,0,0-.309.181l-.454-.366a.313.313,0,0,0-.247-.082.353.353,0,0,0-.234.128l-.441.549a.342.342,0,0,0,.046.487l.384.337a2.116,2.116,0,0,0-.139.333,3.364,3.364,0,0,0-.1.348l-.569.053a.353.353,0,0,0-.234.121.322.322,0,0,0-.06.253l.071.716a.348.348,0,0,0,.121.231.324.324,0,0,0,.251.079l.522-.048a2.158,2.158,0,0,0,.137.335,3.463,3.463,0,0,0,.181.317l-.366.441a.311.311,0,0,0-.079.247.348.348,0,0,0,.126.22l.558.478a.331.331,0,0,0,.253.073.37.37,0,0,0,.238-.119l.339-.414a2.039,2.039,0,0,0,.333.141,3.282,3.282,0,0,0,.348.1l.053.571a.355.355,0,0,0,.121.231.328.328,0,0,0,.253.075l.716-.071a.357.357,0,0,0,.231-.121.333.333,0,0,0,.079-.253l-.051-.522a1.915,1.915,0,0,0,.337-.143,3.2,3.2,0,0,0,.315-.179l.441.366a.333.333,0,0,0,.253.079.339.339,0,0,0,.234-.126l.458-.555a.337.337,0,0,0,.075-.253.362.362,0,0,0-.121-.238l-.414-.335a1.962,1.962,0,0,0,.157-.333,3.4,3.4,0,0,0,.1-.346l.571-.053a.346.346,0,0,0,.22-.121.326.326,0,0,0,.075-.253L24.26,9.4a.357.357,0,0,0-.121-.22.333.333,0,0,0-.253-.082l-.522.051a2.453,2.453,0,0,0-.143-.337,1.922,1.922,0,0,0-.181-.309l.368-.454a.322.322,0,0,0,.079-.247.357.357,0,0,0-.126-.234l-.551-.452h-.018ZM20.61,8.615a1.483,1.483,0,0,1,.555.055,1.45,1.45,0,0,1,.474.256,1.4,1.4,0,0,1,.342.417,1.323,1.323,0,0,1,.159.531,1.479,1.479,0,0,1-.055.555,1.355,1.355,0,0,1-1.193.974,1.435,1.435,0,0,1-.555-.055,1.457,1.457,0,0,1-.476-.253,1.439,1.439,0,0,1-.339-.419,1.3,1.3,0,0,1-.17-.536,1.384,1.384,0,0,1,.727-1.371,1.3,1.3,0,0,1,.531-.159ZM13.79.993a1.023,1.023,0,0,1,.22.1.326.326,0,0,1,.132.066l.888.738a.924.924,0,0,1,.207.24l.018.029a.932.932,0,0,1,.106.335.82.82,0,0,1-.037.366.924.924,0,0,1-.157.284l-.454.564.029.046a2.973,2.973,0,0,1,.157.3q.079.154.132.284l.018.044.6-.057a.849.849,0,0,1,.344.031h.018a.924.924,0,0,1,.282.152l.031.026a.921.921,0,0,1,.2.242l.018.029a.926.926,0,0,1,.095.32c0,.3.075.868.115,1.177a.882.882,0,0,1-.024.333v.02a.882.882,0,0,1-.165.311h0a.9.9,0,0,1-.262.22.974.974,0,0,1-.335.1l-.7.062-.018.064c-.024.088-.055.187-.095.3s-.073.22-.11.3l-.018.037.483.39a.913.913,0,0,1,.22.284.943.943,0,0,1,.071.3v.011a.866.866,0,0,1-.029.353.913.913,0,0,1-.148.3l-.769.93a.882.882,0,0,1-.267.22.864.864,0,0,1-.337.106.9.9,0,0,1-.35-.029h-.018a.946.946,0,0,1-.278-.15l-.571-.465-.057.033c-.1.057-.192.108-.282.152s-.168.084-.258.123l-.079.026.062.6a.862.862,0,0,1-.037.364.939.939,0,0,1-.168.3l-.013.013a.968.968,0,0,1-.249.2h-.022a.943.943,0,0,1-.317.095c-.3,0-.868.077-1.177.117a.932.932,0,0,1-.353-.029.882.882,0,0,1-.311-.168H9.747a.965.965,0,0,1-.209-.265.915.915,0,0,1-.1-.335l-.064-.7-.062-.018-.3-.095a2.745,2.745,0,0,1-.3-.112l-.042-.018-.4.483a.882.882,0,0,1-.258.2l-.024.015a1.014,1.014,0,0,1-.306.088H7.671a.882.882,0,0,1-.355-.029.926.926,0,0,1-.293-.15l-.932-.769a.908.908,0,0,1-.22-.267.919.919,0,0,1-.106-.333A.794.794,0,0,1,5.8,9.479a.882.882,0,0,1,.15-.28l.465-.571-.024-.055c-.048-.082-.095-.17-.141-.262h0c-.055-.1-.1-.2-.143-.3l-.02-.051L5.5,8.018a.853.853,0,0,1-.362-.035.882.882,0,0,1-.282-.154L4.821,7.8a.961.961,0,0,1-.22-.276.928.928,0,0,1-.095-.317c0-.3-.077-.862-.117-1.175a.9.9,0,0,1,.02-.364.882.882,0,0,1,.168-.311h0a.974.974,0,0,1,.265-.22.915.915,0,0,1,.335-.1l.7-.064.018-.064c.026-.086.057-.187.095-.3s.075-.22.112-.3l.018-.042-.452-.384a.93.93,0,0,1-.22-.245L5.431,3.62a.864.864,0,0,1-.093-.313V3.289a.882.882,0,0,1,.035-.355.921.921,0,0,1,.172-.311l.738-.9a.864.864,0,0,1,.242-.2L6.553,1.5a.882.882,0,0,1,.335-.106.791.791,0,0,1,.359.037.943.943,0,0,1,.284.157l.567.456L8.156,2c.09-.053.183-.1.276-.148s.194-.1.284-.137l.053-.02L8.709,1.1A.849.849,0,0,1,8.74.759V.741A.924.924,0,0,1,8.892.459L8.925.441A.943.943,0,0,1,9.2.221a.91.91,0,0,1,.32-.1c.3,0,.868-.075,1.177-.115A.872.872,0,0,1,11.357.2h0a.957.957,0,0,1,.22.262.974.974,0,0,1,.106.344l.062.7.064.018c.086.024.187.055.3.093l.3.112.044.02.381-.461a.9.9,0,0,1,.269-.22.915.915,0,0,1,.342-.11A.831.831,0,0,1,13.8.993ZM10.3,3.552a3.024,3.024,0,0,1,.509,0,2.685,2.685,0,0,1,.52.1h0a2.72,2.72,0,0,1,.467.2l.02.011a2.775,2.775,0,0,1,.4.267h0a2.751,2.751,0,0,1,.637.783,2.33,2.33,0,0,1,.2.483,2.409,2.409,0,0,1,.1.52h0a2.789,2.789,0,0,1,0,.507,2.469,2.469,0,0,1-.1.52v.022a2.7,2.7,0,0,1-.19.441,2.921,2.921,0,0,1-.276.419l-.022.024a2.689,2.689,0,0,1-.765.619,2.533,2.533,0,0,1-.485.2,2.72,2.72,0,0,1-.518.1,3.13,3.13,0,0,1-.518,0,2.645,2.645,0,0,1-.52-.1h0a2.773,2.773,0,0,1-.465-.2,3,3,0,0,1-.419-.278h0a2.7,2.7,0,0,1-.353-.357,2.912,2.912,0,0,1-.287-.423,2.5,2.5,0,0,1-.2-.485,2.409,2.409,0,0,1-.1-.52h0a2.788,2.788,0,0,1,0-.507,2.469,2.469,0,0,1,.1-.52h0a2.645,2.645,0,0,1,.2-.467l.011-.02a2.568,2.568,0,0,1,.267-.4l.018-.022a2.486,2.486,0,0,1,.344-.337,2.9,2.9,0,0,1,.423-.284,2.491,2.491,0,0,1,.483-.2,2.775,2.775,0,0,1,.52-.1Zm.441.677a2.121,2.121,0,0,0-.392,0h0a1.944,1.944,0,0,0-.381.071,1.807,1.807,0,0,0-.35.145,2.3,2.3,0,0,0-.324.22,2.05,2.05,0,0,0-.251.242h0a2.054,2.054,0,0,0-.2.3v.018a2.085,2.085,0,0,0-.145.35,1.951,1.951,0,0,0-.1.392,2.33,2.33,0,0,0,0,.392h0a1.843,1.843,0,0,0,.073.384,1.73,1.73,0,0,0,.148.357,2.1,2.1,0,0,0,.22.322,1.847,1.847,0,0,0,.26.265,2.105,2.105,0,0,0,.311.2,2.228,2.228,0,0,0,.353.148,1.764,1.764,0,0,0,.381.075,2.191,2.191,0,0,0,.4,0,2,2,0,0,0,.384-.071,1.763,1.763,0,0,0,.337-.145,2.125,2.125,0,0,0,.324-.22,2.05,2.05,0,0,0,.251-.247h0a2.092,2.092,0,0,0,.22-.317,2.394,2.394,0,0,0,.143-.335V6.763a1.984,1.984,0,0,0,.077-.384,2.33,2.33,0,0,0,0-.392h0a1.843,1.843,0,0,0-.073-.384,1.785,1.785,0,0,0-.145-.35,2,2,0,0,0-.22-.322,1.847,1.847,0,0,0-.26-.265,2.125,2.125,0,0,0-.293-.2h-.018a2.2,2.2,0,0,0-.353-.148,1.777,1.777,0,0,0-.379-.075Zm-7.155,14.7a.785.785,0,1,1-.783.785.785.785,0,0,1,.783-.785Z" transform="translate(0 -0.001)" fill="#fff"/>
</svg>
